<svg width="30" height="30" viewBox="0 0 30 30" fill="none" xmlns="http://www.w3.org/2000/svg">
<rect width="30" height="30" fill="white"/>
<path d="M22.7815 14.587L11.7815 7.08699C11.628 6.98299 11.43 6.97149 11.266 7.05799C11.1025 7.14449 11 7.31449 11 7.49999V22.5C11 22.6855 11.1025 22.8555 11.2665 22.942C11.3395 22.981 11.42 23 11.5 23C11.5985 23 11.697 22.9705 11.7815 22.913L22.7815 15.413C22.918 15.32 23 15.1655 23 15C23 14.8345 22.918 14.68 22.7815 14.587ZM12 21.5535V8.44649L21.6125 15L12 21.5535Z" fill="black"/>
<path d="M15 0C6.729 0 0 6.729 0 15C0 23.271 6.729 30 15 30C23.271 30 30 23.271 30 15C30 6.729 23.271 0 15 0ZM15 29C7.2805 29 1 22.7195 1 15C1 7.2805 7.2805 1 15 1C22.7195 1 29 7.2805 29 15C29 22.7195 22.7195 29 15 29Z" fill="black"/>
</svg>
