<svg viewBox="0 0 40 40" fill="none" xmlns="http://www.w3.org/2000/svg">
<path d="M30.3753 19.4493L15.7087 9.44934C15.504 9.31067 15.24 9.29534 15.0213 9.41067C14.8033 9.526 14.6667 9.75267 14.6667 10V30C14.6667 30.2473 14.8033 30.474 15.022 30.5893C15.1193 30.6413 15.2267 30.6667 15.3333 30.6667C15.4647 30.6667 15.596 30.6273 15.7087 30.5507L30.3753 20.5507C30.5573 20.4267 30.6667 20.2207 30.6667 20C30.6667 19.7793 30.5573 19.5733 30.3753 19.4493ZM16 28.738V11.262L28.8167 20L16 28.738Z" fill="#FFD482"/>
<path d="M20 0C8.972 0 0 8.972 0 20C0 31.028 8.972 40 20 40C31.028 40 40 31.028 40 20C40 8.972 31.028 0 20 0ZM20 38.6667C9.70733 38.6667 1.33333 30.2927 1.33333 20C1.33333 9.70733 9.70733 1.33333 20 1.33333C30.2927 1.33333 38.6667 9.70733 38.6667 20C38.6667 30.2927 30.2927 38.6667 20 38.6667Z" fill="#FFD482"/>
</svg>
